02_sales_analysis
…
# 3.0 Examining the data from the files
 # view using glimpse function
glimpse(bikes_tbl)

## Rows: 97
## Columns: 4
## $ bike.id     <dbl> 1, 2, 3, 4, 5, 6, 7, 8, 9, 10, 11, 12, 13, 14, 15, 16, 17
## $ model       <chr> "Supersix Evo Black Inc.", "Supersix Evo Hi-Mod Team", "S
## $ description <chr> "Road - Elite Road - Carbon", "Road - Elite Road - Carbon
## $ price       <dbl> 12790, 10660, 7990, 5330, 4260, 3940, 3200, 2660, 2240, 1

bikeshops_tbl

## # A tibble: 30 x 3
##    bikeshop.id bikeshop.name                location       
##          <dbl> <chr>                        <chr>          
##  1           1 Pittsburgh Mountain Machines Pittsburgh, PA 
##  2           2 Ithaca Mountain Climbers     Ithaca, NY     
##  3           3 Columbus Race Equipment      Columbus, OH   
##  4           4 Detroit Cycles               Detroit, MI    
##  5           5 Cincinnati Speed             Cincinnati, OH 
##  6           6 Louisville Race Equipment    Louisville, KY 
##  7           7 Nashville Cruisers           Nashville, TN  
##  8           8 Denver Bike Shop             Denver, CO     
##  9           9 Minneapolis Bike Shop        Minneapolis, MN
## 10          10 Kansas City 29ers            Kansas City, KS
## #  with 20 more rows

orderlines_tbl

## # A tibble: 15,644 x 7
##    ...1  order.id order.line order.date          customer.id product.id quantity
##    <chr>    <dbl>      <dbl> <dttm>                    <dbl>      <dbl>    <dbl>
##  1 1            1          1 2011-01-07 00:00:00           2         48        1
##  2 2            1          2 2011-01-07 00:00:00           2         52        1
##  3 3            2          1 2011-01-10 00:00:00          10         76        1
##  4 4            2          2 2011-01-10 00:00:00          10         52        1
##  5 5            3          1 2011-01-10 00:00:00           6          2        1
##  6 6            3          2 2011-01-10 00:00:00           6         50        1
##  7 7            3          3 2011-01-10 00:00:00           6          1        1
##  8 8            3          4 2011-01-10 00:00:00           6          4        1
##  9 9            3          5 2011-01-10 00:00:00           6         34        1
## 10 10           4          1 2011-01-11 00:00:00          22         26        1
## #  with 15,634 more rows

# 4.0 Joining Data ----
?left_join

orderlines_tbl

## # A tibble: 15,644 x 7
##    ...1  order.id order.line order.date          customer.id product.id quantity
##    <chr>    <dbl>      <dbl> <dttm>                    <dbl>      <dbl>    <dbl>
##  1 1            1          1 2011-01-07 00:00:00           2         48        1
##  2 2            1          2 2011-01-07 00:00:00           2         52        1
##  3 3            2          1 2011-01-10 00:00:00          10         76        1
##  4 4            2          2 2011-01-10 00:00:00          10         52        1
##  5 5            3          1 2011-01-10 00:00:00           6          2        1
##  6 6            3          2 2011-01-10 00:00:00           6         50        1
##  7 7            3          3 2011-01-10 00:00:00           6          1        1
##  8 8            3          4 2011-01-10 00:00:00           6          4        1
##  9 9            3          5 2011-01-10 00:00:00           6         34        1
## 10 10           4          1 2011-01-11 00:00:00          22         26        1
## #  with 15,634 more rows

bikes_tbl

## # A tibble: 97 x 4
##    bike.id model                          description                price
##      <dbl> <chr>                          <chr>                      <dbl>
##  1       1 Supersix Evo Black Inc.        Road - Elite Road - Carbon 12790
##  2       2 Supersix Evo Hi-Mod Team       Road - Elite Road - Carbon 10660
##  3       3 Supersix Evo Hi-Mod Dura Ace 1 Road - Elite Road - Carbon  7990
##  4       4 Supersix Evo Hi-Mod Dura Ace 2 Road - Elite Road - Carbon  5330
##  5       5 Supersix Evo Hi-Mod Utegra     Road - Elite Road - Carbon  4260
##  6       6 Supersix Evo Red               Road - Elite Road - Carbon  3940
##  7       7 Supersix Evo Ultegra 3         Road - Elite Road - Carbon  3200
##  8       8 Supersix Evo Ultegra 4         Road - Elite Road - Carbon  2660
##  9       9 Supersix Evo 105               Road - Elite Road - Carbon  2240
## 10      10 Supersix Evo Tiagra            Road - Elite Road - Carbon  1840
## #  with 87 more rows

left_join(orderlines_tbl, bikes_tbl, by = c ("product.id" = "bike.id"))

## # A tibble: 15,644 x 10
##    ...1  order.id order.line order.date          customer.id product.id quantity
##    <chr>    <dbl>      <dbl> <dttm>                    <dbl>      <dbl>    <dbl>
##  1 1            1          1 2011-01-07 00:00:00           2         48        1
##  2 2            1          2 2011-01-07 00:00:00           2         52        1
##  3 3            2          1 2011-01-10 00:00:00          10         76        1
##  4 4            2          2 2011-01-10 00:00:00          10         52        1
##  5 5            3          1 2011-01-10 00:00:00           6          2        1
##  6 6            3          2 2011-01-10 00:00:00           6         50        1
##  7 7            3          3 2011-01-10 00:00:00           6          1        1
##  8 8            3          4 2011-01-10 00:00:00           6          4        1
##  9 9            3          5 2011-01-10 00:00:00           6         34        1
## 10 10           4          1 2011-01-11 00:00:00          22         26        1
## #  with 15,634 more rows, and 3 more variables: model <chr>,
## #   description <chr>, price <dbl>

bike_orderlines_joined_tbl <- orderlines_tbl %>%
    left_join(bikes_tbl, by = c ("product.id" = "bike.id")) %>%
    left_join(bikeshops_tbl, by = c ("customer.id" = "bikeshop.id"))

bike_orderlines_joined_tbl

## # A tibble: 15,644 x 12
##    ...1  order.id order.line order.date          customer.id product.id quantity
##    <chr>    <dbl>      <dbl> <dttm>                    <dbl>      <dbl>    <dbl>
##  1 1            1          1 2011-01-07 00:00:00           2         48        1
##  2 2            1          2 2011-01-07 00:00:00           2         52        1
##  3 3            2          1 2011-01-10 00:00:00          10         76        1
##  4 4            2          2 2011-01-10 00:00:00          10         52        1
##  5 5            3          1 2011-01-10 00:00:00           6          2        1
##  6 6            3          2 2011-01-10 00:00:00           6         50        1
##  7 7            3          3 2011-01-10 00:00:00           6          1        1
##  8 8            3          4 2011-01-10 00:00:00           6          4        1
##  9 9            3          5 2011-01-10 00:00:00           6         34        1
## 10 10           4          1 2011-01-11 00:00:00          22         26        1
## #  with 15,634 more rows, and 5 more variables: model <chr>,
## #   description <chr>, price <dbl>, bikeshop.name <chr>, location <chr>
…
